# Blender v3.5.0 OBJ File: ''
# www.blender.org
mtllib car4.mtl
o Cube.001
v 0.066760 1.942212 -1.010000
v -0.924184 1.942212 -1.010000
v -0.924184 1.942212 1.010000
v 0.066760 1.942212 1.010000
v -0.924184 -0.651637 1.010000
v -0.924184 -0.651638 -1.010000
v 0.924184 -0.651638 -1.010000
v 0.924184 -0.651637 1.010000
v 0.924184 0.905999 1.010000
v 0.924184 0.905999 -1.010000
vt 0.740970 0.500000
vt 0.875000 0.500000
vt 0.875000 0.750000
vt 0.740970 0.750000
vt 0.375000 0.000000
vt 0.625000 0.000000
vt 0.625000 0.250000
vt 0.375000 0.250000
vt 0.125000 0.500000
vt 0.375000 0.500000
vt 0.375000 0.750000
vt 0.125000 0.750000
vt 0.525128 0.750000
vt 0.625000 0.865970
vt 0.625000 1.000000
vt 0.375000 1.000000
vt 0.525128 0.500000
vt 0.625000 0.384030
vn 0.0000 1.0000 -0.0000
vn -1.0000 -0.0000 0.0000
vn 0.0000 -1.0000 0.0000
vn 0.0000 0.0000 1.0000
vn 1.0000 0.0000 0.0000
vn 0.0000 -0.0000 -1.0000
vn 0.7704 0.6375 -0.0000
usemtl Material.001
s 1
f 1/1/1 2/2/1 3/3/1 4/4/1
f 5/5/2 3/6/2 2/7/2 6/8/2
f 6/9/3 7/10/3 8/11/3 5/12/3
f 8/11/4 9/13/4 4/14/4 3/15/4 5/16/4
f 7/10/5 10/17/5 9/13/5 8/11/5
f 6/8/6 2/7/6 1/18/6 10/17/6 7/10/6
f 4/14/7 9/13/7 10/17/7 1/18/7
o Cylinder.001
v -7.415911 0.153500 -1.271497
v -7.415911 0.153500 -0.916142
v -7.298857 0.141395 -0.916142
v -7.298857 0.141395 -1.271497
v -7.186301 0.105544 -0.916142
v -7.186301 0.105544 -1.271497
v -7.082569 0.047326 -0.916142
v -7.082569 0.047326 -1.271497
v -6.991647 -0.031022 -0.916142
v -6.991647 -0.031022 -1.271497
v -6.917029 -0.126490 -0.916142
v -6.917029 -0.126490 -1.271497
v -6.861583 -0.235409 -0.916142
v -6.861583 -0.235409 -1.271497
v -6.827440 -0.353593 -0.916142
v -6.827440 -0.353593 -1.271497
v -6.815911 -0.476500 -0.916142
v -6.815911 -0.476500 -1.271497
v -6.827440 -0.599406 -0.916142
v -6.827440 -0.599406 -1.271497
v -6.861583 -0.717590 -0.916142
v -6.861583 -0.717590 -1.271497
v -6.917029 -0.826509 -0.916142
v -6.917029 -0.826509 -1.271497
v -6.991647 -0.921977 -0.916142
v -6.991647 -0.921977 -1.271497
v -7.082569 -1.000325 -0.916142
v -7.082569 -1.000325 -1.271497
v -7.186301 -1.058544 -0.916142
v -7.186301 -1.058544 -1.271497
v -7.298857 -1.094394 -0.916142
v -7.298857 -1.094394 -1.271497
v -7.415911 -1.106500 -0.916142
v -7.415911 -1.106500 -1.271497
v -7.532965 -1.094394 -0.916142
v -7.532965 -1.094394 -1.271497
v -7.645521 -1.058544 -0.916142
v -7.645521 -1.058544 -1.271497
v -7.749253 -1.000325 -0.916142
v -7.749253 -1.000325 -1.271497
v -7.840175 -0.921977 -0.916142
v -7.840175 -0.921977 -1.271497
v -7.914793 -0.826509 -0.916142
v -7.914793 -0.826509 -1.271497
v -7.970239 -0.717590 -0.916142
v -7.970239 -0.717590 -1.271497
v -8.004382 -0.599406 -0.916142
v -8.004382 -0.599406 -1.271497
v -8.015911 -0.476500 -0.916142
v -8.015911 -0.476500 -1.271497
v -8.004382 -0.353593 -0.916142
v -8.004382 -0.353593 -1.271497
v -7.970239 -0.235409 -0.916142
v -7.970239 -0.235409 -1.271497
v -7.914793 -0.126490 -0.916142
v -7.914793 -0.126490 -1.271497
v -7.840175 -0.031022 -0.916142
v -7.840175 -0.031022 -1.271497
v -7.749253 0.047326 -0.916142
v -7.749253 0.047326 -1.271497
v -7.645521 0.105544 -0.916142
v -7.645521 0.105544 -1.271497
v -7.532965 0.141395 -0.916142
v -7.532965 0.141395 -1.271497
vt 1.000000 0.500000
vt 1.000000 1.000000
vt 0.968750 1.000000
vt 0.968750 0.500000
vt 0.937500 1.000000
vt 0.937500 0.500000
vt 0.906250 1.000000
vt 0.906250 0.500000
vt 0.875000 1.000000
vt 0.875000 0.500000
vt 0.843750 1.000000
vt 0.843750 0.500000
vt 0.812500 1.000000
vt 0.812500 0.500000
vt 0.781250 1.000000
vt 0.781250 0.500000
vt 0.750000 1.000000
vt 0.750000 0.500000
vt 0.718750 1.000000
vt 0.718750 0.500000
vt 0.687500 1.000000
vt 0.687500 0.500000
vt 0.656250 1.000000
vt 0.656250 0.500000
vt 0.625000 1.000000
vt 0.625000 0.500000
vt 0.593750 1.000000
vt 0.593750 0.500000
vt 0.562500 1.000000
vt 0.562500 0.500000
vt 0.531250 1.000000
vt 0.531250 0.500000
vt 0.500000 1.000000
vt 0.500000 0.500000
vt 0.468750 1.000000
vt 0.468750 0.500000
vt 0.437500 1.000000
vt 0.437500 0.500000
vt 0.406250 1.000000
vt 0.406250 0.500000
vt 0.375000 1.000000
vt 0.375000 0.500000
vt 0.343750 1.000000
vt 0.343750 0.500000
vt 0.312500 1.000000
vt 0.312500 0.500000
vt 0.281250 1.000000
vt 0.281250 0.500000
vt 0.250000 1.000000
vt 0.250000 0.500000
vt 0.218750 1.000000
vt 0.218750 0.500000
vt 0.187500 1.000000
vt 0.187500 0.500000
vt 0.156250 1.000000
vt 0.156250 0.500000
vt 0.125000 1.000000
vt 0.125000 0.500000
vt 0.093750 1.000000
vt 0.093750 0.500000
vt 0.062500 1.000000
vt 0.062500 0.500000
vt 0.296822 0.485388
vt 0.250000 0.490000
vt 0.203178 0.485388
vt 0.158156 0.471731
vt 0.116663 0.449553
vt 0.080294 0.419706
vt 0.050447 0.383337
vt 0.028269 0.341844
vt 0.014612 0.296822
vt 0.010000 0.250000
vt 0.014612 0.203178
vt 0.028269 0.158156
vt 0.050447 0.116663
vt 0.080294 0.080294
vt 0.116663 0.050447
vt 0.158156 0.028269
vt 0.203178 0.014612
vt 0.250000 0.010000
vt 0.296822 0.014612
vt 0.341844 0.028269
vt 0.383337 0.050447
vt 0.419706 0.080294
vt 0.449553 0.116663
vt 0.471731 0.158156
vt 0.485388 0.203178
vt 0.490000 0.250000
vt 0.485388 0.296822
vt 0.471731 0.341844
vt 0.449553 0.383337
vt 0.419706 0.419706
vt 0.383337 0.449553
vt 0.341844 0.471731
vt 0.031250 1.000000
vt 0.031250 0.500000
vt 0.000000 1.000000
vt 0.000000 0.500000
vt 0.750000 0.490000
vt 0.796822 0.485388
vt 0.841844 0.471731
vt 0.883337 0.449553
vt 0.919706 0.419706
vt 0.949553 0.383337
vt 0.971731 0.341844
vt 0.985388 0.296822
vt 0.990000 0.250000
vt 0.985388 0.203178
vt 0.971731 0.158156
vt 0.949553 0.116663
vt 0.919706 0.080294
vt 0.883337 0.050447
vt 0.841844 0.028269
vt 0.796822 0.014612
vt 0.750000 0.010000
vt 0.703178 0.014612
vt 0.658156 0.028269
vt 0.616663 0.050447
vt 0.580294 0.080294
vt 0.550447 0.116663
vt 0.528269 0.158156
vt 0.514612 0.203178
vt 0.510000 0.250000
vt 0.514612 0.296822
vt 0.528269 0.341844
vt 0.550447 0.383337
vt 0.580294 0.419706
vt 0.616663 0.449553
vt 0.658156 0.471731
vt 0.703178 0.485388
vn 0.1029 0.9947 -0.0000
vn 0.3035 0.9528 -0.0000
vn 0.4894 0.8720 -0.0000
vn 0.6528 0.7575 -0.0000
vn 0.7879 0.6158 -0.0000
vn 0.8912 0.4537 -0.0000
vn 0.9607 0.2775 -0.0000
vn 0.9956 0.0934 0.0000
vn 0.9956 -0.0934 0.0000
vn 0.9607 -0.2775 0.0000
vn 0.8912 -0.4537 0.0000
vn 0.7879 -0.6158 0.0000
vn 0.6528 -0.7575 0.0000
vn 0.4894 -0.8720 0.0000
vn 0.3035 -0.9528 0.0000
vn 0.1029 -0.9947 0.0000
vn -0.1029 -0.9947 0.0000
vn -0.3035 -0.9528 0.0000
vn -0.4894 -0.8720 0.0000
vn -0.6528 -0.7575 0.0000
vn -0.7879 -0.6158 0.0000
vn -0.8912 -0.4537 0.0000
vn -0.9607 -0.2775 0.0000
vn -0.9956 -0.0934 0.0000
vn -0.9956 0.0934 0.0000
vn -0.9607 0.2775 -0.0000
vn -0.8912 0.4537 -0.0000
vn -0.7879 0.6158 -0.0000
vn -0.6528 0.7575 -0.0000
vn -0.4894 0.8720 -0.0000
vn 0.0000 0.0000 1.0000
vn -0.3035 0.9528 -0.0000
vn -0.1029 0.9947 -0.0000
vn -0.0000 -0.0000 -1.0000
usemtl None
s 1
f 11/19/8 12/20/8 13/21/8 14/22/8
f 14/22/9 13/21/9 15/23/9 16/24/9
f 16/24/10 15/23/10 17/25/10 18/26/10
f 18/26/11 17/25/11 19/27/11 20/28/11
f 20/28/12 19/27/12 21/29/12 22/30/12
f 22/30/13 21/29/13 23/31/13 24/32/13
f 24/32/14 23/31/14 25/33/14 26/34/14
f 26/34/15 25/33/15 27/35/15 28/36/15
f 28/36/16 27/35/16 29/37/16 30/38/16
f 30/38/17 29/37/17 31/39/17 32/40/17
f 32/40/18 31/39/18 33/41/18 34/42/18
f 34/42/19 33/41/19 35/43/19 36/44/19
f 36/44/20 35/43/20 37/45/20 38/46/20
f 38/46/21 37/45/21 39/47/21 40/48/21
f 40/48/22 39/47/22 41/49/22 42/50/22
f 42/50/23 41/49/23 43/51/23 44/52/23
f 44/52/24 43/51/24 45/53/24 46/54/24
f 46/54/25 45/53/25 47/55/25 48/56/25
f 48/56/26 47/55/26 49/57/26 50/58/26
f 50/58/27 49/57/27 51/59/27 52/60/27
f 52/60/28 51/59/28 53/61/28 54/62/28
f 54/62/29 53/61/29 55/63/29 56/64/29
f 56/64/30 55/63/30 57/65/30 58/66/30
f 58/66/31 57/65/31 59/67/31 60/68/31
f 60/68/32 59/67/32 61/69/32 62/70/32
f 62/70/33 61/69/33 63/71/33 64/72/33
f 64/72/34 63/71/34 65/73/34 66/74/34
f 66/74/35 65/73/35 67/75/35 68/76/35
f 68/76/36 67/75/36 69/77/36 70/78/36
f 70/78/37 69/77/37 71/79/37 72/80/37
f 13/81/38 12/82/38 73/83/38 71/84/38 69/85/38 67/86/38 65/87/38 63/88/38 61/89/38 59/90/38 57/91/38 55/92/38 53/93/38 51/94/38 49/95/38 47/96/38 45/97/38 43/98/38 41/99/38 39/100/38 37/101/38 35/102/38 33/103/38 31/104/38 29/105/38 27/106/38 25/107/38 23/108/38 21/109/38 19/110/38 17/111/38 15/112/38
f 72/80/39 71/79/39 73/113/39 74/114/39
f 74/114/40 73/113/40 12/115/40 11/116/40
f 11/117/41 14/118/41 16/119/41 18/120/41 20/121/41 22/122/41 24/123/41 26/124/41 28/125/41 30/126/41 32/127/41 34/128/41 36/129/41 38/130/41 40/131/41 42/132/41 44/133/41 46/134/41 48/135/41 50/136/41 52/137/41 54/138/41 56/139/41 58/140/41 60/141/41 62/142/41 64/143/41 66/144/41 68/145/41 70/146/41 72/147/41 74/148/41
o Cylinder.002
v -7.415911 0.153500 0.928168
v -7.415911 0.153500 1.283522
v -7.298857 0.141395 1.283522
v -7.298857 0.141395 0.928168
v -7.186301 0.105544 1.283522
v -7.186301 0.105544 0.928168
v -7.082569 0.047326 1.283522
v -7.082569 0.047326 0.928168
v -6.991647 -0.031022 1.283522
v -6.991647 -0.031022 0.928168
v -6.917029 -0.126490 1.283522
v -6.917029 -0.126490 0.928168
v -6.861583 -0.235409 1.283522
v -6.861583 -0.235409 0.928168
v -6.827440 -0.353593 1.283522
v -6.827440 -0.353593 0.928168
v -6.815911 -0.476500 1.283522
v -6.815911 -0.476500 0.928168
v -6.827440 -0.599406 1.283522
v -6.827440 -0.599406 0.928168
v -6.861583 -0.717590 1.283522
v -6.861583 -0.717590 0.928168
v -6.917029 -0.826509 1.283522
v -6.917029 -0.826509 0.928168
v -6.991647 -0.921977 1.283522
v -6.991647 -0.921977 0.928168
v -7.082569 -1.000325 1.283522
v -7.082569 -1.000325 0.928167
v -7.186301 -1.058544 1.283522
v -7.186301 -1.058544 0.928167
v -7.298857 -1.094394 1.283522
v -7.298857 -1.094394 0.928167
v -7.415911 -1.106500 1.283522
v -7.415911 -1.106500 0.928167
v -7.532965 -1.094394 1.283522
v -7.532965 -1.094394 0.928167
v -7.645521 -1.058544 1.283522
v -7.645521 -1.058544 0.928167
v -7.749253 -1.000325 1.283522
v -7.749253 -1.000325 0.928167
v -7.840175 -0.921977 1.283522
v -7.840175 -0.921977 0.928168
v -7.914793 -0.826509 1.283522
v -7.914793 -0.826509 0.928168
v -7.970239 -0.717590 1.283522
v -7.970239 -0.717590 0.928168
v -8.004382 -0.599406 1.283522
v -8.004382 -0.599406 0.928168
v -8.015911 -0.476500 1.283522
v -8.015911 -0.476500 0.928168
v -8.004382 -0.353593 1.283522
v -8.004382 -0.353593 0.928168
v -7.970239 -0.235409 1.283522
v -7.970239 -0.235409 0.928168
v -7.914793 -0.126490 1.283522
v -7.914793 -0.126490 0.928168
v -7.840175 -0.031022 1.283522
v -7.840175 -0.031022 0.928168
v -7.749253 0.047326 1.283522
v -7.749253 0.047326 0.928168
v -7.645521 0.105544 1.283522
v -7.645521 0.105544 0.928168
v -7.532965 0.141395 1.283522
v -7.532965 0.141395 0.928168
vt 1.000000 0.500000
vt 1.000000 1.000000
vt 0.968750 1.000000
vt 0.968750 0.500000
vt 0.937500 1.000000
vt 0.937500 0.500000
vt 0.906250 1.000000
vt 0.906250 0.500000
vt 0.875000 1.000000
vt 0.875000 0.500000
vt 0.843750 1.000000
vt 0.843750 0.500000
vt 0.812500 1.000000
vt 0.812500 0.500000
vt 0.781250 1.000000
vt 0.781250 0.500000
vt 0.750000 1.000000
vt 0.750000 0.500000
vt 0.718750 1.000000
vt 0.718750 0.500000
vt 0.687500 1.000000
vt 0.687500 0.500000
vt 0.656250 1.000000
vt 0.656250 0.500000
vt 0.625000 1.000000
vt 0.625000 0.500000
vt 0.593750 1.000000
vt 0.593750 0.500000
vt 0.562500 1.000000
vt 0.562500 0.500000
vt 0.531250 1.000000
vt 0.531250 0.500000
vt 0.500000 1.000000
vt 0.500000 0.500000
vt 0.468750 1.000000
vt 0.468750 0.500000
vt 0.437500 1.000000
vt 0.437500 0.500000
vt 0.406250 1.000000
vt 0.406250 0.500000
vt 0.375000 1.000000
vt 0.375000 0.500000
vt 0.343750 1.000000
vt 0.343750 0.500000
vt 0.312500 1.000000
vt 0.312500 0.500000
vt 0.281250 1.000000
vt 0.281250 0.500000
vt 0.250000 1.000000
vt 0.250000 0.500000
vt 0.218750 1.000000
vt 0.218750 0.500000
vt 0.187500 1.000000
vt 0.187500 0.500000
vt 0.156250 1.000000
vt 0.156250 0.500000
vt 0.125000 1.000000
vt 0.125000 0.500000
vt 0.093750 1.000000
vt 0.093750 0.500000
vt 0.062500 1.000000
vt 0.062500 0.500000
vt 0.296822 0.485388
vt 0.250000 0.490000
vt 0.203178 0.485388
vt 0.158156 0.471731
vt 0.116663 0.449553
vt 0.080294 0.419706
vt 0.050447 0.383337
vt 0.028269 0.341844
vt 0.014612 0.296822
vt 0.010000 0.250000
vt 0.014612 0.203178
vt 0.028269 0.158156
vt 0.050447 0.116663
vt 0.080294 0.080294
vt 0.116663 0.050447
vt 0.158156 0.028269
vt 0.203178 0.014612
vt 0.250000 0.010000
vt 0.296822 0.014612
vt 0.341844 0.028269
vt 0.383337 0.050447
vt 0.419706 0.080294
vt 0.449553 0.116663
vt 0.471731 0.158156
vt 0.485388 0.203178
vt 0.490000 0.250000
vt 0.485388 0.296822
vt 0.471731 0.341844
vt 0.449553 0.383337
vt 0.419706 0.419706
vt 0.383337 0.449553
vt 0.341844 0.471731
vt 0.031250 1.000000
vt 0.031250 0.500000
vt 0.000000 1.000000
vt 0.000000 0.500000
vt 0.750000 0.490000
vt 0.796822 0.485388
vt 0.841844 0.471731
vt 0.883337 0.449553
vt 0.919706 0.419706
vt 0.949553 0.383337
vt 0.971731 0.341844
vt 0.985388 0.296822
vt 0.990000 0.250000
vt 0.985388 0.203178
vt 0.971731 0.158156
vt 0.949553 0.116663
vt 0.919706 0.080294
vt 0.883337 0.050447
vt 0.841844 0.028269
vt 0.796822 0.014612
vt 0.750000 0.010000
vt 0.703178 0.014612
vt 0.658156 0.028269
vt 0.616663 0.050447
vt 0.580294 0.080294
vt 0.550447 0.116663
vt 0.528269 0.158156
vt 0.514612 0.203178
vt 0.510000 0.250000
vt 0.514612 0.296822
vt 0.528269 0.341844
vt 0.550447 0.383337
vt 0.580294 0.419706
vt 0.616663 0.449553
vt 0.658156 0.471731
vt 0.703178 0.485388
vn 0.1029 0.9947 -0.0000
vn 0.3035 0.9528 -0.0000
vn 0.4894 0.8720 -0.0000
vn 0.6528 0.7575 -0.0000
vn 0.7879 0.6158 -0.0000
vn 0.8912 0.4537 -0.0000
vn 0.9607 0.2775 -0.0000
vn 0.9956 0.0934 -0.0000
vn 0.9956 -0.0934 0.0000
vn 0.9607 -0.2775 0.0000
vn 0.8912 -0.4537 0.0000
vn 0.7879 -0.6158 0.0000
vn 0.6528 -0.7575 0.0000
vn 0.4894 -0.8720 0.0000
vn 0.3035 -0.9528 0.0000
vn 0.1029 -0.9947 0.0000
vn -0.1029 -0.9947 0.0000
vn -0.3035 -0.9528 0.0000
vn -0.4894 -0.8720 0.0000
vn -0.6528 -0.7575 0.0000
vn -0.7879 -0.6158 0.0000
vn -0.8912 -0.4537 0.0000
vn -0.9607 -0.2775 0.0000
vn -0.9956 -0.0934 0.0000
vn -0.9956 0.0934 -0.0000
vn -0.9607 0.2775 -0.0000
vn -0.8912 0.4537 -0.0000
vn -0.7879 0.6158 -0.0000
vn -0.6528 0.7575 -0.0000
vn -0.4894 0.8720 -0.0000
vn -0.0000 0.0000 1.0000
vn -0.3035 0.9528 -0.0000
vn -0.1029 0.9947 -0.0000
vn -0.0000 0.0000 -1.0000
usemtl None
s 1
f 75/149/42 76/150/42 77/151/42 78/152/42
f 78/152/43 77/151/43 79/153/43 80/154/43
f 80/154/44 79/153/44 81/155/44 82/156/44
f 82/156/45 81/155/45 83/157/45 84/158/45
f 84/158/46 83/157/46 85/159/46 86/160/46
f 86/160/47 85/159/47 87/161/47 88/162/47
f 88/162/48 87/161/48 89/163/48 90/164/48
f 90/164/49 89/163/49 91/165/49 92/166/49
f 92/166/50 91/165/50 93/167/50 94/168/50
f 94/168/51 93/167/51 95/169/51 96/170/51
f 96/170/52 95/169/52 97/171/52 98/172/52
f 98/172/53 97/171/53 99/173/53 100/174/53
f 100/174/54 99/173/54 101/175/54 102/176/54
f 102/176/55 101/175/55 103/177/55 104/178/55
f 104/178/56 103/177/56 105/179/56 106/180/56
f 106/180/57 105/179/57 107/181/57 108/182/57
f 108/182/58 107/181/58 109/183/58 110/184/58
f 110/184/59 109/183/59 111/185/59 112/186/59
f 112/186/60 111/185/60 113/187/60 114/188/60
f 114/188/61 113/187/61 115/189/61 116/190/61
f 116/190/62 115/189/62 117/191/62 118/192/62
f 118/192/63 117/191/63 119/193/63 120/194/63
f 120/194/64 119/193/64 121/195/64 122/196/64
f 122/196/65 121/195/65 123/197/65 124/198/65
f 124/198/66 123/197/66 125/199/66 126/200/66
f 126/200/67 125/199/67 127/201/67 128/202/67
f 128/202/68 127/201/68 129/203/68 130/204/68
f 130/204/69 129/203/69 131/205/69 132/206/69
f 132/206/70 131/205/70 133/207/70 134/208/70
f 134/208/71 133/207/71 135/209/71 136/210/71
f 77/211/72 76/212/72 137/213/72 135/214/72 133/215/72 131/216/72 129/217/72 127/218/72 125/219/72 123/220/72 121/221/72 119/222/72 117/223/72 115/224/72 113/225/72 111/226/72 109/227/72 107/228/72 105/229/72 103/230/72 101/231/72 99/232/72 97/233/72 95/234/72 93/235/72 91/236/72 89/237/72 87/238/72 85/239/72 83/240/72 81/241/72 79/242/72
f 136/210/73 135/209/73 137/243/73 138/244/73
f 138/244/74 137/243/74 76/245/74 75/246/74
f 75/247/75 78/248/75 80/249/75 82/250/75 84/251/75 86/252/75 88/253/75 90/254/75 92/255/75 94/256/75 96/257/75 98/258/75 100/259/75 102/260/75 104/261/75 106/262/75 108/263/75 110/264/75 112/265/75 114/266/75 116/267/75 118/268/75 120/269/75 122/270/75 124/271/75 126/272/75 128/273/75 130/274/75 132/275/75 134/276/75 136/277/75 138/278/75
o Cube_Cube.002
v -1.711164 -0.819556 0.279704
v -1.711164 -0.623040 0.279704
v -1.711164 -0.819556 -0.279704
v -1.711164 -0.623040 -0.279704
v -0.155340 -0.819556 0.279704
v -0.155340 -0.623040 0.279704
v -0.155340 -0.819556 -0.279704
v -0.155340 -0.623040 -0.279704
vt 0.375000 0.000000
vt 0.625000 0.000000
vt 0.625000 0.250000
vt 0.375000 0.250000
vt 0.625000 0.500000
vt 0.375000 0.500000
vt 0.625000 0.750000
vt 0.375000 0.750000
vt 0.625000 1.000000
vt 0.375000 1.000000
vt 0.125000 0.500000
vt 0.125000 0.750000
vt 0.875000 0.500000
vt 0.875000 0.750000
vn -1.0000 0.0000 0.0000
vn 0.0000 0.0000 -1.0000
vn 1.0000 0.0000 0.0000
vn 0.0000 0.0000 1.0000
vn 0.0000 -1.0000 0.0000
vn 0.0000 1.0000 0.0000
usemtl None
s off
f 139/279/76 140/280/76 142/281/76 141/282/76
f 141/282/77 142/281/77 146/283/77 145/284/77
f 145/284/78 146/283/78 144/285/78 143/286/78
f 143/286/79 144/285/79 140/287/79 139/288/79
f 141/289/80 145/284/80 143/286/80 139/290/80
f 146/283/81 142/291/81 140/292/81 144/285/81
o Cube.002_Cube.003
v -8.326267 -0.649414 1.089088
v -8.149349 -0.348847 0.918260
v -8.326267 2.097508 1.089088
v -8.326267 -0.649414 -1.089088
v -8.149349 -0.348847 -0.918260
v -8.326267 2.097508 -1.089088
v -1.160370 -0.649414 1.089088
v -1.337288 -0.348847 0.918260
v -1.160370 2.097508 1.089088
v -1.160370 -0.649414 -1.089088
v -1.337288 -0.348847 -0.918260
v -1.160370 2.097508 -1.089088
v -8.149349 2.097508 0.918260
v -8.149349 2.097508 -0.918260
v -1.337288 2.097508 0.918260
v -1.337288 2.097508 -0.918260
vt 0.375000 0.000000
vt 0.625000 0.000000
vt 0.625000 0.250000
vt 0.375000 0.250000
vt 0.625000 0.500000
vt 0.375000 0.500000
vt 0.625000 0.750000
vt 0.375000 0.750000
vt 0.625000 1.000000
vt 0.375000 1.000000
vt 0.125000 0.500000
vt 0.125000 0.750000
vt 0.631172 0.730393
vt 0.631172 0.519607
vt 0.875000 0.500000
vt 0.875000 0.750000
vt 0.868828 0.730393
vt 0.868828 0.519607
vt 0.528748 0.000000
vt 0.375000 0.000000
vt 0.375000 0.250000
vt 0.528748 0.250000
vt 0.375000 0.500000
vt 0.528748 0.500000
vt 0.375000 0.750000
vt 0.528748 0.750000
vt 0.375000 1.000000
vt 0.528748 1.000000
vt 0.125000 0.500000
vt 0.125000 0.750000
vn -1.0000 0.0000 0.0000
vn 0.0000 0.0000 -1.0000
vn 1.0000 0.0000 0.0000
vn 0.0000 0.0000 1.0000
vn 0.0000 -1.0000 0.0000
vn 0.0000 1.0000 0.0000
usemtl None
s off
f 147/293/82 149/294/82 152/295/82 150/296/82
f 150/296/83 152/295/83 158/297/83 156/298/83
f 156/298/84 158/297/84 155/299/84 153/300/84
f 153/300/85 155/299/85 149/301/85 147/302/85
f 150/303/86 156/298/86 153/300/86 147/304/86
f 161/305/87 155/299/87 158/297/87 162/306/87
f 162/306/87 158/297/87 152/307/87 149/308/87 155/299/87 161/305/87 159/309/87 160/310/87
f 159/311/84 148/312/84 151/313/84 160/314/84
f 160/314/85 151/313/85 157/315/85 162/316/85
f 157/315/82 154/317/82 161/318/82 162/316/82
f 154/317/83 148/319/83 159/320/83 161/318/83
f 151/321/87 148/322/87 154/317/87 157/315/87
o Cylinder.003_Cylinder.004
v -5.891798 0.153500 0.928168
v -5.891798 0.153500 1.283522
v -5.774745 0.141395 1.283522
v -5.774745 0.141395 0.928168
v -5.662189 0.105544 1.283522
v -5.662189 0.105544 0.928168
v -5.558456 0.047326 1.283522
v -5.558456 0.047326 0.928168
v -5.467535 -0.031022 1.283522
v -5.467535 -0.031022 0.928168
v -5.392917 -0.126490 1.283522
v -5.392917 -0.126490 0.928168
v -5.337471 -0.235409 1.283522
v -5.337471 -0.235409 0.928168
v -5.303328 -0.353593 1.283522
v -5.303328 -0.353593 0.928168
v -5.291799 -0.476500 1.283522
v -5.291799 -0.476500 0.928168
v -5.303328 -0.599406 1.283522
v -5.303328 -0.599406 0.928168
v -5.337471 -0.717590 1.283522
v -5.337471 -0.717590 0.928168
v -5.392917 -0.826509 1.283522
v -5.392917 -0.826509 0.928168
v -5.467535 -0.921977 1.283522
v -5.467535 -0.921977 0.928168
v -5.558456 -1.000325 1.283522
v -5.558456 -1.000325 0.928167
v -5.662189 -1.058544 1.283522
v -5.662189 -1.058544 0.928167
v -5.774745 -1.094394 1.283522
v -5.774745 -1.094394 0.928167
v -5.891798 -1.106500 1.283522
v -5.891798 -1.106500 0.928167
v -6.008852 -1.094394 1.283522
v -6.008852 -1.094394 0.928167
v -6.121408 -1.058544 1.283522
v -6.121408 -1.058544 0.928167
v -6.225141 -1.000325 1.283522
v -6.225141 -1.000325 0.928167
v -6.316062 -0.921977 1.283522
v -6.316062 -0.921977 0.928168
v -6.390681 -0.826509 1.283522
v -6.390681 -0.826509 0.928168
v -6.446126 -0.717590 1.283522
v -6.446126 -0.717590 0.928168
v -6.480269 -0.599406 1.283522
v -6.480269 -0.599406 0.928168
v -6.491798 -0.476500 1.283522
v -6.491798 -0.476500 0.928168
v -6.480269 -0.353593 1.283522
v -6.480269 -0.353593 0.928168
v -6.446126 -0.235409 1.283522
v -6.446126 -0.235409 0.928168
v -6.390681 -0.126490 1.283522
v -6.390681 -0.126490 0.928168
v -6.316062 -0.031022 1.283522
v -6.316062 -0.031022 0.928168
v -6.225141 0.047326 1.283522
v -6.225141 0.047326 0.928168
v -6.121408 0.105544 1.283522
v -6.121408 0.105544 0.928168
v -6.008852 0.141395 1.283522
v -6.008852 0.141395 0.928168
vt 1.000000 0.500000
vt 1.000000 1.000000
vt 0.968750 1.000000
vt 0.968750 0.500000
vt 0.937500 1.000000
vt 0.937500 0.500000
vt 0.906250 1.000000
vt 0.906250 0.500000
vt 0.875000 1.000000
vt 0.875000 0.500000
vt 0.843750 1.000000
vt 0.843750 0.500000
vt 0.812500 1.000000
vt 0.812500 0.500000
vt 0.781250 1.000000
vt 0.781250 0.500000
vt 0.750000 1.000000
vt 0.750000 0.500000
vt 0.718750 1.000000
vt 0.718750 0.500000
vt 0.687500 1.000000
vt 0.687500 0.500000
vt 0.656250 1.000000
vt 0.656250 0.500000
vt 0.625000 1.000000
vt 0.625000 0.500000
vt 0.593750 1.000000
vt 0.593750 0.500000
vt 0.562500 1.000000
vt 0.562500 0.500000
vt 0.531250 1.000000
vt 0.531250 0.500000
vt 0.500000 1.000000
vt 0.500000 0.500000
vt 0.468750 1.000000
vt 0.468750 0.500000
vt 0.437500 1.000000
vt 0.437500 0.500000
vt 0.406250 1.000000
vt 0.406250 0.500000
vt 0.375000 1.000000
vt 0.375000 0.500000
vt 0.343750 1.000000
vt 0.343750 0.500000
vt 0.312500 1.000000
vt 0.312500 0.500000
vt 0.281250 1.000000
vt 0.281250 0.500000
vt 0.250000 1.000000
vt 0.250000 0.500000
vt 0.218750 1.000000
vt 0.218750 0.500000
vt 0.187500 1.000000
vt 0.187500 0.500000
vt 0.156250 1.000000
vt 0.156250 0.500000
vt 0.125000 1.000000
vt 0.125000 0.500000
vt 0.093750 1.000000
vt 0.093750 0.500000
vt 0.062500 1.000000
vt 0.062500 0.500000
vt 0.296822 0.485388
vt 0.250000 0.490000
vt 0.203178 0.485388
vt 0.158156 0.471731
vt 0.116663 0.449553
vt 0.080294 0.419706
vt 0.050447 0.383337
vt 0.028269 0.341844
vt 0.014612 0.296822
vt 0.010000 0.250000
vt 0.014612 0.203178
vt 0.028269 0.158156
vt 0.050447 0.116663
vt 0.080294 0.080294
vt 0.116663 0.050447
vt 0.158156 0.028269
vt 0.203178 0.014612
vt 0.250000 0.010000
vt 0.296822 0.014612
vt 0.341844 0.028269
vt 0.383337 0.050447
vt 0.419706 0.080294
vt 0.449553 0.116663
vt 0.471731 0.158156
vt 0.485388 0.203178
vt 0.490000 0.250000
vt 0.485388 0.296822
vt 0.471731 0.341844
vt 0.449553 0.383337
vt 0.419706 0.419706
vt 0.383337 0.449553
vt 0.341844 0.471731
vt 0.031250 1.000000
vt 0.031250 0.500000
vt 0.000000 1.000000
vt 0.000000 0.500000
vt 0.750000 0.490000
vt 0.796822 0.485388
vt 0.841844 0.471731
vt 0.883337 0.449553
vt 0.919706 0.419706
vt 0.949553 0.383337
vt 0.971731 0.341844
vt 0.985388 0.296822
vt 0.990000 0.250000
vt 0.985388 0.203178
vt 0.971731 0.158156
vt 0.949553 0.116663
vt 0.919706 0.080294
vt 0.883337 0.050447
vt 0.841844 0.028269
vt 0.796822 0.014612
vt 0.750000 0.010000
vt 0.703178 0.014612
vt 0.658156 0.028269
vt 0.616663 0.050447
vt 0.580294 0.080294
vt 0.550447 0.116663
vt 0.528269 0.158156
vt 0.514612 0.203178
vt 0.510000 0.250000
vt 0.514612 0.296822
vt 0.528269 0.341844
vt 0.550447 0.383337
vt 0.580294 0.419706
vt 0.616663 0.449553
vt 0.658156 0.471731
vt 0.703178 0.485388
vn 0.1029 0.9947 -0.0000
vn 0.3035 0.9528 -0.0000
vn 0.4894 0.8720 -0.0000
vn 0.6528 0.7575 -0.0000
vn 0.7879 0.6158 -0.0000
vn 0.8912 0.4537 -0.0000
vn 0.9607 0.2775 -0.0000
vn 0.9956 0.0934 -0.0000
vn 0.9956 -0.0934 0.0000
vn 0.9607 -0.2775 0.0000
vn 0.8912 -0.4537 0.0000
vn 0.7879 -0.6158 0.0000
vn 0.6528 -0.7575 0.0000
vn 0.4894 -0.8720 0.0000
vn 0.3035 -0.9528 0.0000
vn 0.1029 -0.9947 0.0000
vn -0.1029 -0.9947 0.0000
vn -0.3035 -0.9528 0.0000
vn -0.4894 -0.8720 0.0000
vn -0.6528 -0.7575 0.0000
vn -0.7879 -0.6158 0.0000
vn -0.8912 -0.4537 0.0000
vn -0.9607 -0.2775 0.0000
vn -0.9956 -0.0934 0.0000
vn -0.9956 0.0934 -0.0000
vn -0.9607 0.2775 -0.0000
vn -0.8912 0.4537 -0.0000
vn -0.7879 0.6158 -0.0000
vn -0.6528 0.7575 -0.0000
vn -0.4894 0.8720 -0.0000
vn -0.0000 0.0000 1.0000
vn -0.3035 0.9528 -0.0000
vn -0.1029 0.9947 -0.0000
vn -0.0000 0.0000 -1.0000
usemtl None.001
s 1
f 163/323/88 164/324/88 165/325/88 166/326/88
f 166/326/89 165/325/89 167/327/89 168/328/89
f 168/328/90 167/327/90 169/329/90 170/330/90
f 170/330/91 169/329/91 171/331/91 172/332/91
f 172/332/92 171/331/92 173/333/92 174/334/92
f 174/334/93 173/333/93 175/335/93 176/336/93
f 176/336/94 175/335/94 177/337/94 178/338/94
f 178/338/95 177/337/95 179/339/95 180/340/95
f 180/340/96 179/339/96 181/341/96 182/342/96
f 182/342/97 181/341/97 183/343/97 184/344/97
f 184/344/98 183/343/98 185/345/98 186/346/98
f 186/346/99 185/345/99 187/347/99 188/348/99
f 188/348/100 187/347/100 189/349/100 190/350/100
f 190/350/101 189/349/101 191/351/101 192/352/101
f 192/352/102 191/351/102 193/353/102 194/354/102
f 194/354/103 193/353/103 195/355/103 196/356/103
f 196/356/104 195/355/104 197/357/104 198/358/104
f 198/358/105 197/357/105 199/359/105 200/360/105
f 200/360/106 199/359/106 201/361/106 202/362/106
f 202/362/107 201/361/107 203/363/107 204/364/107
f 204/364/108 203/363/108 205/365/108 206/366/108
f 206/366/109 205/365/109 207/367/109 208/368/109
f 208/368/110 207/367/110 209/369/110 210/370/110
f 210/370/111 209/369/111 211/371/111 212/372/111
f 212/372/112 211/371/112 213/373/112 214/374/112
f 214/374/113 213/373/113 215/375/113 216/376/113
f 216/376/114 215/375/114 217/377/114 218/378/114
f 218/378/115 217/377/115 219/379/115 220/380/115
f 220/380/116 219/379/116 221/381/116 222/382/116
f 222/382/117 221/381/117 223/383/117 224/384/117
f 165/385/118 164/386/118 225/387/118 223/388/118 221/389/118 219/390/118 217/391/118 215/392/118 213/393/118 211/394/118 209/395/118 207/396/118 205/397/118 203/398/118 201/399/118 199/400/118 197/401/118 195/402/118 193/403/118 191/404/118 189/405/118 187/406/118 185/407/118 183/408/118 181/409/118 179/410/118 177/411/118 175/412/118 173/413/118 171/414/118 169/415/118 167/416/118
f 224/384/119 223/383/119 225/417/119 226/418/119
f 226/418/120 225/417/120 164/419/120 163/420/120
f 163/421/121 166/422/121 168/423/121 170/424/121 172/425/121 174/426/121 176/427/121 178/428/121 180/429/121 182/430/121 184/431/121 186/432/121 188/433/121 190/434/121 192/435/121 194/436/121 196/437/121 198/438/121 200/439/121 202/440/121 204/441/121 206/442/121 208/443/121 210/444/121 212/445/121 214/446/121 216/447/121 218/448/121 220/449/121 222/450/121 224/451/121 226/452/121
o Cylinder.004_Cylinder.005
v -5.891798 0.153500 -1.271497
v -5.891798 0.153500 -0.916142
v -5.774745 0.141395 -0.916142
v -5.774745 0.141395 -1.271497
v -5.662189 0.105544 -0.916142
v -5.662189 0.105544 -1.271497
v -5.558456 0.047326 -0.916142
v -5.558456 0.047326 -1.271497
v -5.467535 -0.031022 -0.916142
v -5.467535 -0.031022 -1.271497
v -5.392917 -0.126490 -0.916142
v -5.392917 -0.126490 -1.271497
v -5.337471 -0.235409 -0.916142
v -5.337471 -0.235409 -1.271497
v -5.303328 -0.353593 -0.916142
v -5.303328 -0.353593 -1.271497
v -5.291799 -0.476500 -0.916142
v -5.291799 -0.476500 -1.271497
v -5.303328 -0.599406 -0.916142
v -5.303328 -0.599406 -1.271497
v -5.337471 -0.717590 -0.916142
v -5.337471 -0.717590 -1.271497
v -5.392917 -0.826509 -0.916142
v -5.392917 -0.826509 -1.271497
v -5.467535 -0.921977 -0.916142
v -5.467535 -0.921977 -1.271497
v -5.558456 -1.000325 -0.916142
v -5.558456 -1.000325 -1.271497
v -5.662189 -1.058544 -0.916142
v -5.662189 -1.058544 -1.271497
v -5.774745 -1.094394 -0.916142
v -5.774745 -1.094394 -1.271497
v -5.891798 -1.106500 -0.916142
v -5.891798 -1.106500 -1.271497
v -6.008852 -1.094394 -0.916142
v -6.008852 -1.094394 -1.271497
v -6.121408 -1.058544 -0.916142
v -6.121408 -1.058544 -1.271497
v -6.225141 -1.000325 -0.916142
v -6.225141 -1.000325 -1.271497
v -6.316062 -0.921977 -0.916142
v -6.316062 -0.921977 -1.271497
v -6.390681 -0.826509 -0.916142
v -6.390681 -0.826509 -1.271497
v -6.446126 -0.717590 -0.916142
v -6.446126 -0.717590 -1.271497
v -6.480269 -0.599406 -0.916142
v -6.480269 -0.599406 -1.271497
v -6.491798 -0.476500 -0.916142
v -6.491798 -0.476500 -1.271497
v -6.480269 -0.353593 -0.916142
v -6.480269 -0.353593 -1.271497
v -6.446126 -0.235409 -0.916142
v -6.446126 -0.235409 -1.271497
v -6.390681 -0.126490 -0.916142
v -6.390681 -0.126490 -1.271497
v -6.316062 -0.031022 -0.916142
v -6.316062 -0.031022 -1.271497
v -6.225141 0.047326 -0.916142
v -6.225141 0.047326 -1.271497
v -6.121408 0.105544 -0.916142
v -6.121408 0.105544 -1.271497
v -6.008852 0.141395 -0.916142
v -6.008852 0.141395 -1.271497
vt 1.000000 0.500000
vt 1.000000 1.000000
vt 0.968750 1.000000
vt 0.968750 0.500000
vt 0.937500 1.000000
vt 0.937500 0.500000
vt 0.906250 1.000000
vt 0.906250 0.500000
vt 0.875000 1.000000
vt 0.875000 0.500000
vt 0.843750 1.000000
vt 0.843750 0.500000
vt 0.812500 1.000000
vt 0.812500 0.500000
vt 0.781250 1.000000
vt 0.781250 0.500000
vt 0.750000 1.000000
vt 0.750000 0.500000
vt 0.718750 1.000000
vt 0.718750 0.500000
vt 0.687500 1.000000
vt 0.687500 0.500000
vt 0.656250 1.000000
vt 0.656250 0.500000
vt 0.625000 1.000000
vt 0.625000 0.500000
vt 0.593750 1.000000
vt 0.593750 0.500000
vt 0.562500 1.000000
vt 0.562500 0.500000
vt 0.531250 1.000000
vt 0.531250 0.500000
vt 0.500000 1.000000
vt 0.500000 0.500000
vt 0.468750 1.000000
vt 0.468750 0.500000
vt 0.437500 1.000000
vt 0.437500 0.500000
vt 0.406250 1.000000
vt 0.406250 0.500000
vt 0.375000 1.000000
vt 0.375000 0.500000
vt 0.343750 1.000000
vt 0.343750 0.500000
vt 0.312500 1.000000
vt 0.312500 0.500000
vt 0.281250 1.000000
vt 0.281250 0.500000
vt 0.250000 1.000000
vt 0.250000 0.500000
vt 0.218750 1.000000
vt 0.218750 0.500000
vt 0.187500 1.000000
vt 0.187500 0.500000
vt 0.156250 1.000000
vt 0.156250 0.500000
vt 0.125000 1.000000
vt 0.125000 0.500000
vt 0.093750 1.000000
vt 0.093750 0.500000
vt 0.062500 1.000000
vt 0.062500 0.500000
vt 0.296822 0.485388
vt 0.250000 0.490000
vt 0.203178 0.485388
vt 0.158156 0.471731
vt 0.116663 0.449553
vt 0.080294 0.419706
vt 0.050447 0.383337
vt 0.028269 0.341844
vt 0.014612 0.296822
vt 0.010000 0.250000
vt 0.014612 0.203178
vt 0.028269 0.158156
vt 0.050447 0.116663
vt 0.080294 0.080294
vt 0.116663 0.050447
vt 0.158156 0.028269
vt 0.203178 0.014612
vt 0.250000 0.010000
vt 0.296822 0.014612
vt 0.341844 0.028269
vt 0.383337 0.050447
vt 0.419706 0.080294
vt 0.449553 0.116663
vt 0.471731 0.158156
vt 0.485388 0.203178
vt 0.490000 0.250000
vt 0.485388 0.296822
vt 0.471731 0.341844
vt 0.449553 0.383337
vt 0.419706 0.419706
vt 0.383337 0.449553
vt 0.341844 0.471731
vt 0.031250 1.000000
vt 0.031250 0.500000
vt 0.000000 1.000000
vt 0.000000 0.500000
vt 0.750000 0.490000
vt 0.796822 0.485388
vt 0.841844 0.471731
vt 0.883337 0.449553
vt 0.919706 0.419706
vt 0.949553 0.383337
vt 0.971731 0.341844
vt 0.985388 0.296822
vt 0.990000 0.250000
vt 0.985388 0.203178
vt 0.971731 0.158156
vt 0.949553 0.116663
vt 0.919706 0.080294
vt 0.883337 0.050447
vt 0.841844 0.028269
vt 0.796822 0.014612
vt 0.750000 0.010000
vt 0.703178 0.014612
vt 0.658156 0.028269
vt 0.616663 0.050447
vt 0.580294 0.080294
vt 0.550447 0.116663
vt 0.528269 0.158156
vt 0.514612 0.203178
vt 0.510000 0.250000
vt 0.514612 0.296822
vt 0.528269 0.341844
vt 0.550447 0.383337
vt 0.580294 0.419706
vt 0.616663 0.449553
vt 0.658156 0.471731
vt 0.703178 0.485388
vn 0.1029 0.9947 -0.0000
vn 0.3035 0.9528 -0.0000
vn 0.4894 0.8720 -0.0000
vn 0.6528 0.7575 -0.0000
vn 0.7879 0.6158 -0.0000
vn 0.8912 0.4537 -0.0000
vn 0.9607 0.2775 -0.0000
vn 0.9956 0.0934 0.0000
vn 0.9956 -0.0934 0.0000
vn 0.9607 -0.2775 0.0000
vn 0.8912 -0.4537 0.0000
vn 0.7879 -0.6158 0.0000
vn 0.6528 -0.7575 0.0000
vn 0.4894 -0.8720 0.0000
vn 0.3035 -0.9528 0.0000
vn 0.1029 -0.9947 0.0000
vn -0.1029 -0.9947 0.0000
vn -0.3035 -0.9528 0.0000
vn -0.4894 -0.8720 0.0000
vn -0.6528 -0.7575 0.0000
vn -0.7879 -0.6158 0.0000
vn -0.8912 -0.4537 0.0000
vn -0.9607 -0.2775 0.0000
vn -0.9956 -0.0934 0.0000
vn -0.9956 0.0934 0.0000
vn -0.9607 0.2775 -0.0000
vn -0.8912 0.4537 -0.0000
vn -0.7879 0.6158 -0.0000
vn -0.6528 0.7575 -0.0000
vn -0.4894 0.8720 -0.0000
vn 0.0000 0.0000 1.0000
vn -0.3035 0.9528 -0.0000
vn -0.1029 0.9947 -0.0000
vn -0.0000 -0.0000 -1.0000
usemtl None.001
s 1
f 227/453/122 228/454/122 229/455/122 230/456/122
f 230/456/123 229/455/123 231/457/123 232/458/123
f 232/458/124 231/457/124 233/459/124 234/460/124
f 234/460/125 233/459/125 235/461/125 236/462/125
f 236/462/126 235/461/126 237/463/126 238/464/126
f 238/464/127 237/463/127 239/465/127 240/466/127
f 240/466/128 239/465/128 241/467/128 242/468/128
f 242/468/129 241/467/129 243/469/129 244/470/129
f 244/470/130 243/469/130 245/471/130 246/472/130
f 246/472/131 245/471/131 247/473/131 248/474/131
f 248/474/132 247/473/132 249/475/132 250/476/132
f 250/476/133 249/475/133 251/477/133 252/478/133
f 252/478/134 251/477/134 253/479/134 254/480/134
f 254/480/135 253/479/135 255/481/135 256/482/135
f 256/482/136 255/481/136 257/483/136 258/484/136
f 258/484/137 257/483/137 259/485/137 260/486/137
f 260/486/138 259/485/138 261/487/138 262/488/138
f 262/488/139 261/487/139 263/489/139 264/490/139
f 264/490/140 263/489/140 265/491/140 266/492/140
f 266/492/141 265/491/141 267/493/141 268/494/141
f 268/494/142 267/493/142 269/495/142 270/496/142
f 270/496/143 269/495/143 271/497/143 272/498/143
f 272/498/144 271/497/144 273/499/144 274/500/144
f 274/500/145 273/499/145 275/501/145 276/502/145
f 276/502/146 275/501/146 277/503/146 278/504/146
f 278/504/147 277/503/147 279/505/147 280/506/147
f 280/506/148 279/505/148 281/507/148 282/508/148
f 282/508/149 281/507/149 283/509/149 284/510/149
f 284/510/150 283/509/150 285/511/150 286/512/150
f 286/512/151 285/511/151 287/513/151 288/514/151
f 229/515/152 228/516/152 289/517/152 287/518/152 285/519/152 283/520/152 281/521/152 279/522/152 277/523/152 275/524/152 273/525/152 271/526/152 269/527/152 267/528/152 265/529/152 263/530/152 261/531/152 259/532/152 257/533/152 255/534/152 253/535/152 251/536/152 249/537/152 247/538/152 245/539/152 243/540/152 241/541/152 239/542/152 237/543/152 235/544/152 233/545/152 231/546/152
f 288/514/153 287/513/153 289/547/153 290/548/153
f 290/548/154 289/547/154 228/549/154 227/550/154
f 227/551/155 230/552/155 232/553/155 234/554/155 236/555/155 238/556/155 240/557/155 242/558/155 244/559/155 246/560/155 248/561/155 250/562/155 252/563/155 254/564/155 256/565/155 258/566/155 260/567/155 262/568/155 264/569/155 266/570/155 268/571/155 270/572/155 272/573/155 274/574/155 276/575/155 278/576/155 280/577/155 282/578/155 284/579/155 286/580/155 288/581/155 290/582/155
o Cylinder.005_Cylinder.006
v 0.037928 0.153500 -1.271497
v 0.037928 0.153500 -0.916142
v 0.154982 0.141395 -0.916142
v 0.154982 0.141395 -1.271497
v 0.267538 0.105544 -0.916142
v 0.267538 0.105544 -1.271497
v 0.371270 0.047326 -0.916142
v 0.371270 0.047326 -1.271497
v 0.462192 -0.031022 -0.916142
v 0.462192 -0.031022 -1.271497
v 0.536810 -0.126490 -0.916142
v 0.536810 -0.126490 -1.271497
v 0.592256 -0.235409 -0.916142
v 0.592256 -0.235409 -1.271497
v 0.626399 -0.353593 -0.916142
v 0.626399 -0.353593 -1.271497
v 0.637928 -0.476500 -0.916142
v 0.637928 -0.476500 -1.271497
v 0.626399 -0.599406 -0.916142
v 0.626399 -0.599406 -1.271497
v 0.592256 -0.717590 -0.916142
v 0.592256 -0.717590 -1.271497
v 0.536810 -0.826509 -0.916142
v 0.536810 -0.826509 -1.271497
v 0.462192 -0.921977 -0.916142
v 0.462192 -0.921977 -1.271497
v 0.371270 -1.000325 -0.916142
v 0.371270 -1.000325 -1.271497
v 0.267538 -1.058544 -0.916142
v 0.267538 -1.058544 -1.271497
v 0.154982 -1.094394 -0.916142
v 0.154982 -1.094394 -1.271497
v 0.037928 -1.106500 -0.916142
v 0.037928 -1.106500 -1.271497
v -0.079126 -1.094394 -0.916142
v -0.079126 -1.094394 -1.271497
v -0.191682 -1.058544 -0.916142
v -0.191682 -1.058544 -1.271497
v -0.295414 -1.000325 -0.916142
v -0.295414 -1.000325 -1.271497
v -0.386336 -0.921977 -0.916142
v -0.386336 -0.921977 -1.271497
v -0.460954 -0.826509 -0.916142
v -0.460954 -0.826509 -1.271497
v -0.516400 -0.717590 -0.916142
v -0.516400 -0.717590 -1.271497
v -0.550543 -0.599406 -0.916142
v -0.550543 -0.599406 -1.271497
v -0.562072 -0.476500 -0.916142
v -0.562072 -0.476500 -1.271497
v -0.550543 -0.353593 -0.916142
v -0.550543 -0.353593 -1.271497
v -0.516400 -0.235409 -0.916142
v -0.516400 -0.235409 -1.271497
v -0.460954 -0.126490 -0.916142
v -0.460954 -0.126490 -1.271497
v -0.386336 -0.031022 -0.916142
v -0.386336 -0.031022 -1.271497
v -0.295414 0.047326 -0.916142
v -0.295414 0.047326 -1.271497
v -0.191682 0.105544 -0.916142
v -0.191682 0.105544 -1.271497
v -0.079126 0.141395 -0.916142
v -0.079126 0.141395 -1.271497
vt 1.000000 0.500000
vt 1.000000 1.000000
vt 0.968750 1.000000
vt 0.968750 0.500000
vt 0.937500 1.000000
vt 0.937500 0.500000
vt 0.906250 1.000000
vt 0.906250 0.500000
vt 0.875000 1.000000
vt 0.875000 0.500000
vt 0.843750 1.000000
vt 0.843750 0.500000
vt 0.812500 1.000000
vt 0.812500 0.500000
vt 0.781250 1.000000
vt 0.781250 0.500000
vt 0.750000 1.000000
vt 0.750000 0.500000
vt 0.718750 1.000000
vt 0.718750 0.500000
vt 0.687500 1.000000
vt 0.687500 0.500000
vt 0.656250 1.000000
vt 0.656250 0.500000
vt 0.625000 1.000000
vt 0.625000 0.500000
vt 0.593750 1.000000
vt 0.593750 0.500000
vt 0.562500 1.000000
vt 0.562500 0.500000
vt 0.531250 1.000000
vt 0.531250 0.500000
vt 0.500000 1.000000
vt 0.500000 0.500000
vt 0.468750 1.000000
vt 0.468750 0.500000
vt 0.437500 1.000000
vt 0.437500 0.500000
vt 0.406250 1.000000
vt 0.406250 0.500000
vt 0.375000 1.000000
vt 0.375000 0.500000
vt 0.343750 1.000000
vt 0.343750 0.500000
vt 0.312500 1.000000
vt 0.312500 0.500000
vt 0.281250 1.000000
vt 0.281250 0.500000
vt 0.250000 1.000000
vt 0.250000 0.500000
vt 0.218750 1.000000
vt 0.218750 0.500000
vt 0.187500 1.000000
vt 0.187500 0.500000
vt 0.156250 1.000000
vt 0.156250 0.500000
vt 0.125000 1.000000
vt 0.125000 0.500000
vt 0.093750 1.000000
vt 0.093750 0.500000
vt 0.062500 1.000000
vt 0.062500 0.500000
vt 0.296822 0.485388
vt 0.250000 0.490000
vt 0.203178 0.485388
vt 0.158156 0.471731
vt 0.116663 0.449553
vt 0.080294 0.419706
vt 0.050447 0.383337
vt 0.028269 0.341844
vt 0.014612 0.296822
vt 0.010000 0.250000
vt 0.014612 0.203178
vt 0.028269 0.158156
vt 0.050447 0.116663
vt 0.080294 0.080294
vt 0.116663 0.050447
vt 0.158156 0.028269
vt 0.203178 0.014612
vt 0.250000 0.010000
vt 0.296822 0.014612
vt 0.341844 0.028269
vt 0.383337 0.050447
vt 0.419706 0.080294
vt 0.449553 0.116663
vt 0.471731 0.158156
vt 0.485388 0.203178
vt 0.490000 0.250000
vt 0.485388 0.296822
vt 0.471731 0.341844
vt 0.449553 0.383337
vt 0.419706 0.419706
vt 0.383337 0.449553
vt 0.341844 0.471731
vt 0.031250 1.000000
vt 0.031250 0.500000
vt 0.000000 1.000000
vt 0.000000 0.500000
vt 0.750000 0.490000
vt 0.796822 0.485388
vt 0.841844 0.471731
vt 0.883337 0.449553
vt 0.919706 0.419706
vt 0.949553 0.383337
vt 0.971731 0.341844
vt 0.985388 0.296822
vt 0.990000 0.250000
vt 0.985388 0.203178
vt 0.971731 0.158156
vt 0.949553 0.116663
vt 0.919706 0.080294
vt 0.883337 0.050447
vt 0.841844 0.028269
vt 0.796822 0.014612
vt 0.750000 0.010000
vt 0.703178 0.014612
vt 0.658156 0.028269
vt 0.616663 0.050447
vt 0.580294 0.080294
vt 0.550447 0.116663
vt 0.528269 0.158156
vt 0.514612 0.203178
vt 0.510000 0.250000
vt 0.514612 0.296822
vt 0.528269 0.341844
vt 0.550447 0.383337
vt 0.580294 0.419706
vt 0.616663 0.449553
vt 0.658156 0.471731
vt 0.703178 0.485388
vn 0.1029 0.9947 -0.0000
vn 0.3035 0.9528 -0.0000
vn 0.4894 0.8720 -0.0000
vn 0.6528 0.7575 -0.0000
vn 0.7879 0.6158 -0.0000
vn 0.8912 0.4537 -0.0000
vn 0.9607 0.2775 -0.0000
vn 0.9956 0.0934 0.0000
vn 0.9956 -0.0934 0.0000
vn 0.9607 -0.2775 0.0000
vn 0.8912 -0.4537 0.0000
vn 0.7879 -0.6158 0.0000
vn 0.6528 -0.7575 0.0000
vn 0.4894 -0.8720 0.0000
vn 0.3035 -0.9528 0.0000
vn 0.1029 -0.9947 0.0000
vn -0.1029 -0.9947 0.0000
vn -0.3035 -0.9528 0.0000
vn -0.4894 -0.8720 0.0000
vn -0.6528 -0.7575 0.0000
vn -0.7879 -0.6158 0.0000
vn -0.8912 -0.4537 0.0000
vn -0.9607 -0.2775 0.0000
vn -0.9956 -0.0934 0.0000
vn -0.9956 0.0934 0.0000
vn -0.9607 0.2775 -0.0000
vn -0.8912 0.4537 -0.0000
vn -0.7879 0.6158 -0.0000
vn -0.6528 0.7575 -0.0000
vn -0.4894 0.8720 -0.0000
vn 0.0000 0.0000 1.0000
vn -0.3035 0.9528 -0.0000
vn -0.1029 0.9947 -0.0000
vn -0.0000 -0.0000 -1.0000
usemtl None.002
s 1
f 291/583/156 292/584/156 293/585/156 294/586/156
f 294/586/157 293/585/157 295/587/157 296/588/157
f 296/588/158 295/587/158 297/589/158 298/590/158
f 298/590/159 297/589/159 299/591/159 300/592/159
f 300/592/160 299/591/160 301/593/160 302/594/160
f 302/594/161 301/593/161 303/595/161 304/596/161
f 304/596/162 303/595/162 305/597/162 306/598/162
f 306/598/163 305/597/163 307/599/163 308/600/163
f 308/600/164 307/599/164 309/601/164 310/602/164
f 310/602/165 309/601/165 311/603/165 312/604/165
f 312/604/166 311/603/166 313/605/166 314/606/166
f 314/606/167 313/605/167 315/607/167 316/608/167
f 316/608/168 315/607/168 317/609/168 318/610/168
f 318/610/169 317/609/169 319/611/169 320/612/169
f 320/612/170 319/611/170 321/613/170 322/614/170
f 322/614/171 321/613/171 323/615/171 324/616/171
f 324/616/172 323/615/172 325/617/172 326/618/172
f 326/618/173 325/617/173 327/619/173 328/620/173
f 328/620/174 327/619/174 329/621/174 330/622/174
f 330/622/175 329/621/175 331/623/175 332/624/175
f 332/624/176 331/623/176 333/625/176 334/626/176
f 334/626/177 333/625/177 335/627/177 336/628/177
f 336/628/178 335/627/178 337/629/178 338/630/178
f 338/630/179 337/629/179 339/631/179 340/632/179
f 340/632/180 339/631/180 341/633/180 342/634/180
f 342/634/181 341/633/181 343/635/181 344/636/181
f 344/636/182 343/635/182 345/637/182 346/638/182
f 346/638/183 345/637/183 347/639/183 348/640/183
f 348/640/184 347/639/184 349/641/184 350/642/184
f 350/642/185 349/641/185 351/643/185 352/644/185
f 293/645/186 292/646/186 353/647/186 351/648/186 349/649/186 347/650/186 345/651/186 343/652/186 341/653/186 339/654/186 337/655/186 335/656/186 333/657/186 331/658/186 329/659/186 327/660/186 325/661/186 323/662/186 321/663/186 319/664/186 317/665/186 315/666/186 313/667/186 311/668/186 309/669/186 307/670/186 305/671/186 303/672/186 301/673/186 299/674/186 297/675/186 295/676/186
f 352/644/187 351/643/187 353/677/187 354/678/187
f 354/678/188 353/677/188 292/679/188 291/680/188
f 291/681/189 294/682/189 296/683/189 298/684/189 300/685/189 302/686/189 304/687/189 306/688/189 308/689/189 310/690/189 312/691/189 314/692/189 316/693/189 318/694/189 320/695/189 322/696/189 324/697/189 326/698/189 328/699/189 330/700/189 332/701/189 334/702/189 336/703/189 338/704/189 340/705/189 342/706/189 344/707/189 346/708/189 348/709/189 350/710/189 352/711/189 354/712/189
o Cylinder.006_Cylinder.007
v 0.037928 0.153500 0.928168
v 0.037928 0.153500 1.283522
v 0.154982 0.141395 1.283522
v 0.154982 0.141395 0.928168
v 0.267538 0.105544 1.283522
v 0.267538 0.105544 0.928168
v 0.371270 0.047326 1.283522
v 0.371270 0.047326 0.928168
v 0.462192 -0.031022 1.283522
v 0.462192 -0.031022 0.928168
v 0.536810 -0.126490 1.283522
v 0.536810 -0.126490 0.928168
v 0.592256 -0.235409 1.283522
v 0.592256 -0.235409 0.928168
v 0.626399 -0.353593 1.283522
v 0.626399 -0.353593 0.928168
v 0.637928 -0.476500 1.283522
v 0.637928 -0.476500 0.928168
v 0.626399 -0.599406 1.283522
v 0.626399 -0.599406 0.928168
v 0.592256 -0.717590 1.283522
v 0.592256 -0.717590 0.928168
v 0.536810 -0.826509 1.283522
v 0.536810 -0.826509 0.928168
v 0.462192 -0.921977 1.283522
v 0.462192 -0.921977 0.928168
v 0.371270 -1.000325 1.283522
v 0.371270 -1.000325 0.928167
v 0.267538 -1.058544 1.283522
v 0.267538 -1.058544 0.928167
v 0.154982 -1.094394 1.283522
v 0.154982 -1.094394 0.928167
v 0.037928 -1.106500 1.283522
v 0.037928 -1.106500 0.928167
v -0.079126 -1.094394 1.283522
v -0.079126 -1.094394 0.928167
v -0.191682 -1.058544 1.283522
v -0.191682 -1.058544 0.928167
v -0.295414 -1.000325 1.283522
v -0.295414 -1.000325 0.928167
v -0.386336 -0.921977 1.283522
v -0.386336 -0.921977 0.928168
v -0.460954 -0.826509 1.283522
v -0.460954 -0.826509 0.928168
v -0.516400 -0.717590 1.283522
v -0.516400 -0.717590 0.928168
v -0.550543 -0.599406 1.283522
v -0.550543 -0.599406 0.928168
v -0.562072 -0.476500 1.283522
v -0.562072 -0.476500 0.928168
v -0.550543 -0.353593 1.283522
v -0.550543 -0.353593 0.928168
v -0.516400 -0.235409 1.283522
v -0.516400 -0.235409 0.928168
v -0.460954 -0.126490 1.283522
v -0.460954 -0.126490 0.928168
v -0.386336 -0.031022 1.283522
v -0.386336 -0.031022 0.928168
v -0.295414 0.047326 1.283522
v -0.295414 0.047326 0.928168
v -0.191682 0.105544 1.283522
v -0.191682 0.105544 0.928168
v -0.079126 0.141395 1.283522
v -0.079126 0.141395 0.928168
vt 1.000000 0.500000
vt 1.000000 1.000000
vt 0.968750 1.000000
vt 0.968750 0.500000
vt 0.937500 1.000000
vt 0.937500 0.500000
vt 0.906250 1.000000
vt 0.906250 0.500000
vt 0.875000 1.000000
vt 0.875000 0.500000
vt 0.843750 1.000000
vt 0.843750 0.500000
vt 0.812500 1.000000
vt 0.812500 0.500000
vt 0.781250 1.000000
vt 0.781250 0.500000
vt 0.750000 1.000000
vt 0.750000 0.500000
vt 0.718750 1.000000
vt 0.718750 0.500000
vt 0.687500 1.000000
vt 0.687500 0.500000
vt 0.656250 1.000000
vt 0.656250 0.500000
vt 0.625000 1.000000
vt 0.625000 0.500000
vt 0.593750 1.000000
vt 0.593750 0.500000
vt 0.562500 1.000000
vt 0.562500 0.500000
vt 0.531250 1.000000
vt 0.531250 0.500000
vt 0.500000 1.000000
vt 0.500000 0.500000
vt 0.468750 1.000000
vt 0.468750 0.500000
vt 0.437500 1.000000
vt 0.437500 0.500000
vt 0.406250 1.000000
vt 0.406250 0.500000
vt 0.375000 1.000000
vt 0.375000 0.500000
vt 0.343750 1.000000
vt 0.343750 0.500000
vt 0.312500 1.000000
vt 0.312500 0.500000
vt 0.281250 1.000000
vt 0.281250 0.500000
vt 0.250000 1.000000
vt 0.250000 0.500000
vt 0.218750 1.000000
vt 0.218750 0.500000
vt 0.187500 1.000000
vt 0.187500 0.500000
vt 0.156250 1.000000
vt 0.156250 0.500000
vt 0.125000 1.000000
vt 0.125000 0.500000
vt 0.093750 1.000000
vt 0.093750 0.500000
vt 0.062500 1.000000
vt 0.062500 0.500000
vt 0.296822 0.485388
vt 0.250000 0.490000
vt 0.203178 0.485388
vt 0.158156 0.471731
vt 0.116663 0.449553
vt 0.080294 0.419706
vt 0.050447 0.383337
vt 0.028269 0.341844
vt 0.014612 0.296822
vt 0.010000 0.250000
vt 0.014612 0.203178
vt 0.028269 0.158156
vt 0.050447 0.116663
vt 0.080294 0.080294
vt 0.116663 0.050447
vt 0.158156 0.028269
vt 0.203178 0.014612
vt 0.250000 0.010000
vt 0.296822 0.014612
vt 0.341844 0.028269
vt 0.383337 0.050447
vt 0.419706 0.080294
vt 0.449553 0.116663
vt 0.471731 0.158156
vt 0.485388 0.203178
vt 0.490000 0.250000
vt 0.485388 0.296822
vt 0.471731 0.341844
vt 0.449553 0.383337
vt 0.419706 0.419706
vt 0.383337 0.449553
vt 0.341844 0.471731
vt 0.031250 1.000000
vt 0.031250 0.500000
vt 0.000000 1.000000
vt 0.000000 0.500000
vt 0.750000 0.490000
vt 0.796822 0.485388
vt 0.841844 0.471731
vt 0.883337 0.449553
vt 0.919706 0.419706
vt 0.949553 0.383337
vt 0.971731 0.341844
vt 0.985388 0.296822
vt 0.990000 0.250000
vt 0.985388 0.203178
vt 0.971731 0.158156
vt 0.949553 0.116663
vt 0.919706 0.080294
vt 0.883337 0.050447
vt 0.841844 0.028269
vt 0.796822 0.014612
vt 0.750000 0.010000
vt 0.703178 0.014612
vt 0.658156 0.028269
vt 0.616663 0.050447
vt 0.580294 0.080294
vt 0.550447 0.116663
vt 0.528269 0.158156
vt 0.514612 0.203178
vt 0.510000 0.250000
vt 0.514612 0.296822
vt 0.528269 0.341844
vt 0.550447 0.383337
vt 0.580294 0.419706
vt 0.616663 0.449553
vt 0.658156 0.471731
vt 0.703178 0.485388
vn 0.1029 0.9947 -0.0000
vn 0.3035 0.9528 -0.0000
vn 0.4894 0.8720 -0.0000
vn 0.6528 0.7575 -0.0000
vn 0.7879 0.6158 -0.0000
vn 0.8912 0.4537 -0.0000
vn 0.9607 0.2775 -0.0000
vn 0.9956 0.0934 -0.0000
vn 0.9956 -0.0934 0.0000
vn 0.9607 -0.2775 0.0000
vn 0.8912 -0.4537 0.0000
vn 0.7879 -0.6158 0.0000
vn 0.6528 -0.7575 0.0000
vn 0.4894 -0.8720 0.0000
vn 0.3035 -0.9528 0.0000
vn 0.1029 -0.9947 0.0000
vn -0.1029 -0.9947 0.0000
vn -0.3035 -0.9528 0.0000
vn -0.4894 -0.8720 0.0000
vn -0.6528 -0.7575 0.0000
vn -0.7879 -0.6158 0.0000
vn -0.8912 -0.4537 0.0000
vn -0.9607 -0.2775 0.0000
vn -0.9956 -0.0934 0.0000
vn -0.9956 0.0934 -0.0000
vn -0.9607 0.2775 -0.0000
vn -0.8912 0.4537 -0.0000
vn -0.7879 0.6158 -0.0000
vn -0.6528 0.7575 -0.0000
vn -0.4894 0.8720 -0.0000
vn -0.0000 0.0000 1.0000
vn -0.3035 0.9528 -0.0000
vn -0.1029 0.9947 -0.0000
vn -0.0000 0.0000 -1.0000
usemtl None.002
s 1
f 355/713/190 356/714/190 357/715/190 358/716/190
f 358/716/191 357/715/191 359/717/191 360/718/191
f 360/718/192 359/717/192 361/719/192 362/720/192
f 362/720/193 361/719/193 363/721/193 364/722/193
f 364/722/194 363/721/194 365/723/194 366/724/194
f 366/724/195 365/723/195 367/725/195 368/726/195
f 368/726/196 367/725/196 369/727/196 370/728/196
f 370/728/197 369/727/197 371/729/197 372/730/197
f 372/730/198 371/729/198 373/731/198 374/732/198
f 374/732/199 373/731/199 375/733/199 376/734/199
f 376/734/200 375/733/200 377/735/200 378/736/200
f 378/736/201 377/735/201 379/737/201 380/738/201
f 380/738/202 379/737/202 381/739/202 382/740/202
f 382/740/203 381/739/203 383/741/203 384/742/203
f 384/742/204 383/741/204 385/743/204 386/744/204
f 386/744/205 385/743/205 387/745/205 388/746/205
f 388/746/206 387/745/206 389/747/206 390/748/206
f 390/748/207 389/747/207 391/749/207 392/750/207
f 392/750/208 391/749/208 393/751/208 394/752/208
f 394/752/209 393/751/209 395/753/209 396/754/209
f 396/754/210 395/753/210 397/755/210 398/756/210
f 398/756/211 397/755/211 399/757/211 400/758/211
f 400/758/212 399/757/212 401/759/212 402/760/212
f 402/760/213 401/759/213 403/761/213 404/762/213
f 404/762/214 403/761/214 405/763/214 406/764/214
f 406/764/215 405/763/215 407/765/215 408/766/215
f 408/766/216 407/765/216 409/767/216 410/768/216
f 410/768/217 409/767/217 411/769/217 412/770/217
f 412/770/218 411/769/218 413/771/218 414/772/218
f 414/772/219 413/771/219 415/773/219 416/774/219
f 357/775/220 356/776/220 417/777/220 415/778/220 413/779/220 411/780/220 409/781/220 407/782/220 405/783/220 403/784/220 401/785/220 399/786/220 397/787/220 395/788/220 393/789/220 391/790/220 389/791/220 387/792/220 385/793/220 383/794/220 381/795/220 379/796/220 377/797/220 375/798/220 373/799/220 371/800/220 369/801/220 367/802/220 365/803/220 363/804/220 361/805/220 359/806/220
f 416/774/221 415/773/221 417/807/221 418/808/221
f 418/808/222 417/807/222 356/809/222 355/810/222
f 355/811/223 358/812/223 360/813/223 362/814/223 364/815/223 366/816/223 368/817/223 370/818/223 372/819/223 374/820/223 376/821/223 378/822/223 380/823/223 382/824/223 384/825/223 386/826/223 388/827/223 390/828/223 392/829/223 394/830/223 396/831/223 398/832/223 400/833/223 402/834/223 404/835/223 406/836/223 408/837/223 410/838/223 412/839/223 414/840/223 416/841/223 418/842/223
